{
  "name": "Test",
  "permissions": "PUBLIC_READ_WRITE",
  "pages": [
    {
      "name": "My Billboards",
      "widgets": [
        {
          "visualization": {
            "id": "viz.billboard"
          },
          "title": "Transactions Overview",
          "layout": {
            "column": 6,
            "row": 2,
            "width": 7,
            "height": 3
          },
          "rawConfiguration": {
            "nrqlQueries": [
              {
                "accountId": 1234567,
                "query": "SELECT count(*) FROM Transactions"
              }
            ],

            "thresholds": [
              {
                "alertSeverity": "WARNING",
                "value": 0.5
              },
              {
                "alertSeverity": "CRITICAL",
                "value": 3.5
              }
            ]
          }
        },

        {
          "visualization": {
            "id": "viz.billboard"
          },
          "title": "Errors Overview",
          "layout": {
            "column": 6,
            "row": 5,
            "width": 7,
            "height": 3
          },
          "rawConfiguration": {
            "nrqlQueries": [
              {
                "accountId": 2345678,
                "query": "SELECT count(*) FROM Errors"
              }
            ]
          }
        }
      ]
    },

    {
      "name": "My Bullets",
      "widgets": [
        {
          "visualization": {
            "id": "viz.bullet"
          },
          "title": "Transactions Overview",
          "layout": {
            "column": 6,
            "row": 2,
            "width": 7,
            "height": 3
          },
          "rawConfiguration": {
            "nrqlQueries": [
              {
                "accountId": 1234567,
                "query": "SELECT uniqueCount(session) FROM PageView SINCE 1 day ago"
              }
            ],
            "limit": 10.5
          }
        },

        {
          "visualization": {
            "id": "viz.bullet"
          },
          "title": "Errors Overview",
          "layout": {
            "column": 6,
            "row": 5,
            "width": 7,
            "height": 3
          },
          "rawConfiguration": {
            "nrqlQueries": [
              {
                "accountId": 2345678,
                "query": "SELECT count(*) FROM Errors"
              }
            ],
            "limit": 10
          }
        }
      ]
    },

    {
      "name": "My Markdown",
      "widgets": [
        {
          "visualization": {
            "id": "viz.markdown"
          },
          "layout": {
            "column": 1,
            "row": 1,
            "width": 12,
            "height": 1
          },
          "rawConfiguration": {
            "text": "## This is some markdown"
          }
        }
      ]
    },


    {
      "name": "My Pies",
      "widgets": [
        {
          "visualization": {
            "id": "viz.pie"
          },
          "title": "Transactions Overview",
          "layout": {
            "column": 6,
            "row": 2,
            "width": 7,
            "height": 3
          },
          "linkedEntityGuids": [
            {
              "guid": "FooBar"
            }
          ],
          "filterCurrentDashboard": true,
          "rawConfiguration": {
            "nrqlQueries": [
              {
                "accountId": 1234567,
                "query": "SELECT uniqueCount(session) FROM PageView FACET appName SINCE 1 day ago"
              }
            ]
          }
        },

        {
          "visualization": {
            "id": "viz.pie"
          },
          "title": "Errors Overview",
          "layout": {
            "column": 6,
            "row": 5,
            "width": 7,
            "height": 3
          },
          "linkedEntityGuids": [
            {
              "guid": "BarFoo"
            }
          ],
          "rawConfiguration": {
            "nrqlQueries": [
              {
                "accountId": 2345678,
                "query": "SELECT count(*) FROM Errors FACET appName"
              }
            ]
          }
        }
      ]
    },

    {
      "name": "My Tables",
      "widgets": [
        {
          "visualization": {
            "id": "viz.table"
          },
          "title": "Transactions Overview",
          "layout": {
            "column": 6,
            "row": 2,
            "width": 7,
            "height": 3
          },
          "rawConfiguration": {
            "nrqlQueries": [
              {
                "accountId": 1234567,
                "query": "SELECT count(*) FROM Transactions"
              }
            ]
          },
          "facet": {},
          "dataFormatters": [
            {
              "name": "Average memory used (MB)",
              "precision": 2,
              "type": "humanized"
            },
            {
              "format": "%d/%m/%Y",
              "name": "Average CPU utilization (%)",
              "type": "custom"
            }
          ]
        },

        {
          "visualization": {
            "id": "viz.table"
          },
          "title": "Errors Overview",
          "layout": {
            "column": 6,
            "row": 5,
            "width": 7,
            "height": 3
          },
          "rawConfiguration": {
            "nrqlQueries": [
              {
                "accountId": 2345678,
                "query": "SELECT count(*) FROM Errors"
              }
            ]
          }
        }
      ]
    }
  ]
}
